…
```r
weather_tpa <- weather_tpa %>%
  mutate(month=as_factor(month)) 

levels(weather_tpa$month) <- c("January", "February", "March", "April", "May", "June", "July", "August", "September", "October", "November", "December")
weather_tpa
```

```
## # A tibble: 367 × 6
##     year month     day precipitation max_temp min_temp
##    <dbl> <fct>   <dbl>         <dbl>    <dbl>    <dbl>
##  1  2016 January     1          0          81       70
##  2  2016 January     2          0          73       59
##  3  2016 January     3          0.18       61       50
##  4  2016 January     4          0          66       49
##  5  2016 January     5          0          68       49
##  6  2016 January     6          0          67       54
##  7  2016 January     7          0          72       56
##  8  2016 January     8          0.54       76       63
##  9  2016 January     9          0.65       78       62
## 10  2016 January    10          0          72       56
## # … with 357 more rows
```
…
```r
BB_2015
```

```
## # A tibble: 100 × 6
##     Rank Song              Artist                             Year Lyrics Source
##    <dbl> <chr>             <chr>                             <dbl> <chr>   <dbl>
##  1     1 uptown funk       mark ronson featuring bruno mars   2015 this …      1
##  2     2 thinking out loud ed sheeran                         2015 when …      1
##  3     3 see you again     wiz khalifa featuring charlie pu…  2015 its b…      1
##  4     4 trap queen        fetty wap                          2015 im li…      1
##  5     5 sugar             maroon 5                           2015 im hu…      1
##  6     6 shut up and dance walk the moon                      2015 oh do…      1
##  7     7 blank space       taylor swift                       2015 nice …      1
##  8     8 watch me          silento                            2015 now w…      1
##  9     9 earned it         the weeknd                         2015 you m…      1
## 10    10 the hills         the weeknd                         2015 your …      1
## # … with 90 more rows
```
…
